Working with data in R!
…
# Use the '<-' combined symbol to "stuff" your code result from the right side into the variable on the left side. You can name the variable whatever you want! We named it 'stud' here: 
stud <- diamonds[grep("Good",diamonds)]

#Let us make a few modifications. 
#First, let's specify that we are looking in rows with a comma after the grep command
#Then let's grep for the pattern in the "cut" column only. 

#To use column information inside the function, we can use SYNTAX like this:
#diamonds$cut. That calls the column "by its name". 

stud2 <- diamonds[grep("Good",diamonds$cut),]
stud2

# A tibble: 16,988 × 10
   carat cut       color clarity depth table price     x     y     z
   <dbl> <ord>     <ord> <ord>   <dbl> <dbl> <int> <dbl> <dbl> <dbl>
 1  0.23 Good      E     VS1      56.9    65   327  4.05  4.07  2.31
 2  0.31 Good      J     SI2      63.3    58   335  4.34  4.35  2.75
 3  0.24 Very Good J     VVS2     62.8    57   336  3.94  3.96  2.48
 4  0.24 Very Good I     VVS1     62.3    57   336  3.95  3.98  2.47
 5  0.26 Very Good H     SI1      61.9    55   337  4.07  4.11  2.53
 6  0.23 Very Good H     VS1      59.4    61   338  4     4.05  2.39
 7  0.3  Good      J     SI1      64      55   339  4.25  4.28  2.73
 8  0.3  Good      J     SI1      63.4    54   351  4.23  4.29  2.7 
 9  0.3  Good      J     SI1      63.8    56   351  4.23  4.26  2.71
10  0.3  Very Good J     SI1      62.7    59   351  4.21  4.27  2.66
# ℹ 16,978 more rows
…
#The variables in diatask are cut and price.

Use a combination of nrow() and head() to display ALL of the rows of the diatask dataframe.

head(diatask, n = nrow(diatask))

# A tibble: 21 × 2
   cut       price
   <ord>     <int>
 1 Very Good   554
 2 Very Good   554
 3 Very Good   554
 4 Ideal       554
 5 Ideal       554
 6 Good        554
 7 Premium     554
 8 Premium     554
 9 Premium     554
10 Premium     554
# ℹ 11 more rows
…
